%YAML 1.1
%TAG !u! tag:unity3d.com,2011:
--- !u!114 &11400000
MonoBehaviour:
  m_ObjectHideFlags: 0
  m_CorrespondingSourceObject: {fileID: 0}
  m_PrefabInstance: {fileID: 0}
  m_PrefabAsset: {fileID: 0}
  m_GameObject: {fileID: 0}
  m_Enabled: 1
  m_EditorHideFlags: 0
  m_Script: {fileID: 11500000, guid: d192423e1dca95b42b54e70fffb8d9cf, type: 3}
  m_Name: BrassWatch
  m_EditorClassIdentifier: 
  itemID: 1
  itemImage: {fileID: 21300000, guid: b0aaa602074e02640b655615db7d3dd3, type: 3}
  components:
  - {fileID: 0}
  - {fileID: 0}
