%YAML 1.1
%TAG !u! tag:unity3d.com,2011:
--- !u!114 &11400000
MonoBehaviour:
  m_ObjectHideFlags: 0
  m_CorrespondingSourceObject: {fileID: 0}
  m_PrefabInstance: {fileID: 0}
  m_PrefabAsset: {fileID: 0}
  m_GameObject: {fileID: 0}
  m_Enabled: 1
  m_EditorHideFlags: 0
  m_Script: {fileID: 11500000, guid: d7d9252e11497ae4282be52d84b698aa, type: 3}
  m_Name: Level0
  m_EditorClassIdentifier: 
  listOfWatches:
  - {fileID: 11400000, guid: eafec650947cefc4ab10150dead47b2a, type: 2}
  - {fileID: 0}
  - {fileID: 0}
  - {fileID: 0}
